<svg id="if_camera-alt_2628473" xmlns="http://www.w3.org/2000/svg" viewBox="0 0 20 17.995">
  <path id="Rectangle-200" d="M18,17.995h0L2,17.953a2.006,2.006,0,0,1-2-2V4.909a2,2,0,0,1,2-2h1.89L5.352.819A2.147,2.147,0,0,1,6.925,0H12.9a2.132,2.132,0,0,1,1.57.827L15.9,2.912l2.1.027a2.031,2.031,0,0,1,2,2.021V16A2,2,0,0,1,18,17.995ZM2,4.912C2,4.93,2,9.124,2,15.52l0,.432h.014L18,15.995V4.961c-.012,0-.958-.022-3.162-.062L12.847,2l-.015-.021.007.014,0,.007H6.967L4.938,4.912H2Z" fill="#fff"/>
  <path id="Oval-35" d="M4,8A4,4,0,1,1,8,4,4,4,0,0,1,4,8ZM4,2A2,2,0,1,0,6,4,2,2,0,0,0,4,2Z" transform="translate(6 6)" fill="#fff"/>
</svg>
