<svg xmlns="http://www.w3.org/2000/svg" viewBox="0 0 9.855 7.25">
  <path id="Check" d="M8.642.108a.366.366,0,0,0-.52,0L2.917,5.359.628,3.068a.366.366,0,0,0-.52,0,.372.372,0,0,0,0,.523l2.55,2.552a.37.37,0,0,0,.521,0L8.642.632a.371.371,0,0,0,0-.523Z" transform="translate(0.552 0.5)" fill="#fff" stroke="#fff" stroke-miterlimit="10" stroke-width="1"/>
</svg>
