<svg xmlns="http://www.w3.org/2000/svg" viewBox="0 0 15.151 15.15">
  <g id="if_location-arrow_216279" transform="translate(-0.098 -0.752)">
    <path id="Shape" d="M7.18,14.222c.4,1.2,1.155,1.241,1.689.1l6.067-13C15.47.175,14.976-.319,13.832.215L.83,6.281c-1.144.534-1.1,1.29.1,1.69L5.617,9.534Z" transform="translate(0.098 0.752)" fill="#3880f4"/>
  </g>
</svg>
