<svg xmlns="http://www.w3.org/2000/svg" viewBox="0 0 100 100">
	<style>
		tspan { white-space:pre }
		.shp0 { fill: #ffffff } 
		.shp1 { fill: #ea4335 } 
		.shp2 { fill: #fbbc05 } 
		.shp3 { fill: #4285f4 } 
		.shp4 { fill: #34a853 } 
	</style>
	<g id="Google Icon">
		<g id="Group">
			<path id="Shape" class="shp0" d="M40.91,11.2c-9.58,3.3 -17.73,10.52 -22.28,19.66c-1.58,3.15 -2.73,6.5 -3.42,9.97c-1.73,8.61 -0.53,17.79 3.4,25.62c2.56,5.11 6.23,9.67 10.67,13.23c4.21,3.36 9.09,5.88 14.29,7.26c6.55,1.77 13.53,1.73 20.12,0.21c5.96,-1.38 11.61,-4.26 16.11,-8.43c4.75,-4.41 8.16,-10.2 9.96,-16.45c1.96,-6.79 2.22,-14.06 0.99,-21.04c-12.32,0 -24.67,0 -36.99,0c0,5.16 0,10.31 0,15.47c7.14,0 14.29,0 21.43,0c-0.82,4.94 -3.74,9.46 -7.86,12.25c-2.6,1.77 -5.58,2.9 -8.67,3.45c-3.09,0.53 -6.3,0.6 -9.39,-0.02c-3.15,-0.64 -6.13,-1.96 -8.75,-3.81c-4.18,-2.96 -7.37,-7.28 -9,-12.16c-1.67,-4.96 -1.69,-10.48 0,-15.42c1.18,-3.49 3.13,-6.71 5.71,-9.35c3.17,-3.28 7.29,-5.62 11.75,-6.58c3.8,-0.81 7.82,-0.66 11.54,0.47c3.17,0.96 6.09,2.73 8.48,5.03c2.41,-2.43 4.82,-4.86 7.23,-7.28c1.27,-1.3 2.6,-2.56 3.83,-3.9c-3.66,-3.41 -7.97,-6.16 -12.66,-7.9c-8.45,-3.15 -17.97,-3.22 -26.48,-0.26z" />
			<path id="Shape" class="shp1" d="M40.91,11.2c-9.58,3.3 -17.73,10.52 -22.28,19.68c4.31,3.36 8.61,6.71 12.9,10.08c1.18,-3.49 3.13,-6.73 5.71,-9.35c3.19,-3.28 7.31,-5.62 11.75,-6.58c3.8,-0.83 7.82,-0.66 11.54,0.47c3.17,0.98 6.09,2.73 8.48,5.03c2.41,-2.43 4.82,-4.86 7.23,-7.29c1.27,-1.3 2.6,-2.56 3.83,-3.9c-3.68,-3.43 -7.97,-6.16 -12.66,-7.9c-8.45,-3.13 -17.99,-3.2 -26.48,-0.23z" />
			<path id="Shape" class="shp2" d="M15.23,40.8c-1.74,8.61 -0.53,17.79 3.44,25.6c4.29,-3.34 8.58,-6.71 12.87,-10.07c-1.69,-4.94 -1.69,-10.46 0,-15.42c-4.31,-3.36 -8.6,-6.71 -12.89,-10.07c-1.58,3.15 -2.73,6.52 -3.42,9.97z" />
			<path id="Shape" class="shp3" d="M53.76,41.21c0,5.16 0,10.31 -0.02,15.47c7.15,0 14.29,0 21.43,0c-0.82,4.94 -3.74,9.46 -7.86,12.25c4.16,3.26 8.33,6.52 12.49,9.78c4.75,-4.41 8.16,-10.2 9.96,-16.44c1.95,-6.82 2.22,-14.08 0.99,-21.04c-12.32,0 -24.67,0 -36.99,0z" />
			<path id="Shape" class="shp4" d="M18.63,66.43c2.56,5.11 6.24,9.67 10.66,13.21c4.21,3.39 9.09,5.88 14.29,7.26c6.55,1.77 13.53,1.73 20.12,0.21c5.96,-1.38 11.61,-4.24 16.11,-8.44c-4.17,-3.26 -8.33,-6.52 -12.49,-9.78c-2.6,1.77 -5.58,2.9 -8.67,3.45c-3.11,0.53 -6.3,0.62 -9.39,-0.02c-3.13,-0.64 -6.13,-1.96 -8.75,-3.81c-4.18,-2.96 -7.35,-7.29 -9,-12.16c-4.29,3.36 -8.58,6.73 -12.88,10.08z" />
		</g>
	</g>
</svg>