<svg xmlns="http://www.w3.org/2000/svg" viewBox="0 0 22 19" width="22" height="19">
	<defs>
		<clipPath clipPathUnits="userSpaceOnUse" id="cp1">
			<path d="M-294,-117c-0.53,0 -1.05,0.1 -1.53,0.3c-0.49,0.2 -0.93,0.5 -1.3,0.87c-0.37,0.37 -0.67,0.81 -0.87,1.3c-0.2,0.49 -0.3,1.01 -0.3,1.53v-4v0v0v0c0,0 0,0 0,160v-160v0v0v0c0,0 0,0 343,160v-156c0,-0.53 -0.1,-1.05 -0.3,-1.53c-0.2,-0.49 -0.5,-0.93 -0.87,-1.3c-0.37,-0.37 -0.81,-0.67 -1.3,-0.87c-0.49,-0.2 -1.01,-0.3 -1.53,-0.3h-335z" />
		</clipPath>
	</defs>
	<style>
		tspan { white-space:pre }
		.shp0 { fill: none } 
		.shp1 { fill: none;stroke: #ffffff;stroke-width: 2 } 
	</style>
	<g id="Clip-Path" clip-path="url(#cp1)">
		<g id="Layer">
			<g id="Shape">
				<path id="Shape-2" class="shp0" d="M12.54,15.93c4.29,-3.82 7.13,-6.34 7.13,-9.43c0,-0.6 -0.12,-1.19 -0.35,-1.74c-0.23,-0.55 -0.57,-1.05 -1,-1.47c-0.43,-0.42 -0.93,-0.75 -1.49,-0.97c-0.56,-0.22 -1.15,-0.33 -1.75,-0.32c-0.35,0 -0.71,0.04 -1.05,0.12c-0.35,0.08 -0.68,0.19 -1.01,0.34c-0.32,0.15 -0.63,0.33 -0.91,0.54c-0.28,0.21 -0.55,0.45 -0.78,0.72c-0.23,-0.27 -0.5,-0.51 -0.78,-0.72c-0.28,-0.21 -0.59,-0.39 -0.91,-0.54c-0.32,-0.15 -0.66,-0.26 -1.01,-0.34c-0.35,-0.08 -0.7,-0.12 -1.05,-0.12c-0.6,-0.01 -1.19,0.1 -1.75,0.32c-0.56,0.22 -1.06,0.55 -1.49,0.97c-0.43,0.42 -0.77,0.92 -1,1.47c-0.23,0.55 -0.35,1.14 -0.35,1.74c0,3.09 2.83,5.6 7.13,9.42l1.21,1.08z" />
				<g id="Shape-3">
					<path id="Shape-4" class="shp1" d="M12.54,15.93c4.29,-3.82 7.13,-6.34 7.13,-9.43c0,-0.6 -0.12,-1.19 -0.35,-1.74c-0.23,-0.55 -0.57,-1.05 -1,-1.47c-0.43,-0.42 -0.93,-0.75 -1.49,-0.97c-0.56,-0.22 -1.15,-0.33 -1.75,-0.32c-0.35,0 -0.71,0.04 -1.05,0.12c-0.35,0.08 -0.68,0.19 -1.01,0.34c-0.32,0.15 -0.63,0.33 -0.91,0.54c-0.28,0.21 -0.55,0.45 -0.78,0.72c-0.23,-0.27 -0.5,-0.51 -0.78,-0.72c-0.28,-0.21 -0.59,-0.39 -0.91,-0.54c-0.32,-0.15 -0.66,-0.26 -1.01,-0.34c-0.35,-0.08 -0.7,-0.12 -1.05,-0.12c-0.6,-0.01 -1.19,0.1 -1.75,0.32c-0.56,0.22 -1.06,0.55 -1.49,0.97c-0.43,0.42 -0.77,0.92 -1,1.47c-0.23,0.55 -0.35,1.14 -0.35,1.74c0,3.09 2.83,5.6 7.13,9.42l1.21,1.08z" />
				</g>
			</g>
		</g>
	</g>
</svg>