<svg xmlns="http://www.w3.org/2000/svg" width="37" height="30" viewBox="0 0 37 30">
  <path id="photo" d="M30.272,30H6.728A6.7,6.7,0,0,1,0,23.333v-10A6.705,6.705,0,0,1,6.728,6.666H7.4a1.623,1.623,0,0,0,1.514-1l1.85-3.833A3.55,3.55,0,0,1,13.791,0h9.25a3.19,3.19,0,0,1,3.028,1.833l2.018,3.833a1.623,1.623,0,0,0,1.514,1h.672A6.705,6.705,0,0,1,37,13.333v10A6.7,6.7,0,0,1,30.272,30ZM18.5,10a6.667,6.667,0,1,0,6.727,6.667A6.705,6.705,0,0,0,18.5,10Z" fill="#fff"/>
</svg>
