<svg xmlns="http://www.w3.org/2000/svg" viewBox="0 0 27.023 27.023">
  <g id="if_icon-close-round_211651" transform="translate(0.831 13.557) rotate(-45)">
    <path id="Shape" d="M17.421,15.047l-6.09-6.09,6.09-6.09A1.678,1.678,0,1,0,15.047.493l-6.09,6.09L2.867.493A1.678,1.678,0,0,0,.493,2.867l6.09,6.09-6.09,6.09a1.678,1.678,0,1,0,2.374,2.374l6.09-6.09,6.09,6.09a1.678,1.678,0,1,0,2.374-2.374Z" transform="translate(0.043 0.043)" fill="#fff" stroke="#00d664" stroke-miterlimit="10" stroke-width="1"/>
  </g>
</svg>
