<svg id="ic_settings" xmlns="http://www.w3.org/2000/svg" viewBox="0 0 24 24">
  <g id="Icon_24px" data-name="Icon 24px">
    <path id="Shape" d="M0,0H24V24H0Z" fill="none"/>
    <path id="Shape-2" data-name="Shape" d="M11.73,20h-4a.488.488,0,0,1-.49-.419L6.859,16.93a7.333,7.333,0,0,1-1.689-.98l-2.49,1a.506.506,0,0,1-.174.03.494.494,0,0,1-.436-.25l-2-3.461a.5.5,0,0,1,.12-.64L2.3,10.98a7.747,7.747,0,0,1-.07-.98,7.742,7.742,0,0,1,.07-.98L.189,7.37a.491.491,0,0,1-.12-.64l2-3.461A.489.489,0,0,1,2.5,3.016a.5.5,0,0,1,.182.035l2.49,1a7.635,7.635,0,0,1,1.689-.98L7.24.42A.488.488,0,0,1,7.729,0h4a.488.488,0,0,1,.49.42l.38,2.65a7.377,7.377,0,0,1,1.69.98l2.49-1a.506.506,0,0,1,.174-.03.492.492,0,0,1,.435.25l2,3.461a.5.5,0,0,1-.121.64l-2.11,1.65a7.962,7.962,0,0,1,.07.98,7.924,7.924,0,0,1-.07.98l2.11,1.65a.5.5,0,0,1,.121.64l-2,3.461a.487.487,0,0,1-.427.254.5.5,0,0,1-.182-.035l-2.49-1a7.613,7.613,0,0,1-1.69.98l-.38,2.651A.488.488,0,0,1,11.73,20Zm-2-13.5a3.5,3.5,0,1,0,3.5,3.5A3.5,3.5,0,0,0,9.729,6.5Z" transform="translate(2.271 2)" fill="#838ca3"/>
  </g>
</svg>
