<svg xmlns="http://www.w3.org/2000/svg" viewBox="0 0 24.857 22">
  <g id="if_chat_293661_1_" data-name="if_chat_293661 (1)" transform="translate(1 1)">
    <g id="Shape">
      <path id="Shape-2" data-name="Shape" d="M22.857,8.571C22.857,3.838,17.74,0,11.429,0S0,3.838,0,8.571s5.117,8.571,11.429,8.571h1.429A10.912,10.912,0,0,0,20,20a8.038,8.038,0,0,1-1.429-4.732h0c2.711-1.628,4.288-4.092,4.286-6.7" fill="none" stroke="#fafbfb" stroke-miterlimit="10" stroke-width="2"/>
      <path id="Shape-3" data-name="Shape" d="M22.857,8.571C22.857,3.838,17.74,0,11.429,0S0,3.838,0,8.571s5.117,8.571,11.429,8.571h1.429A10.912,10.912,0,0,0,20,20a8.038,8.038,0,0,1-1.429-4.732h0c2.711-1.628,4.288-4.092,4.286-6.7" fill="none"/>
    </g>
  </g>
</svg>
