<svg xmlns="http://www.w3.org/2000/svg" viewBox="0 0 13.656 14.558">
  <g id="if_icon-upload_2867950" transform="translate(0 -0.723)">
    <g id="if_icon-clip_2867877">
      <path id="Shape" d="M12.451,7.241,7.666,12.034A3.638,3.638,0,1,1,2.517,6.892l4.793-4.8a2.183,2.183,0,1,1,3.084,3.091L5.608,9.976A.73.73,0,0,1,4.575,8.943L9.368,4.157A.73.73,0,0,0,8.335,3.125L3.549,7.917A2.182,2.182,0,0,0,6.633,11l4.793-4.785A3.641,3.641,0,1,0,6.277,1.066l-4.785,4.8a5.091,5.091,0,0,0,7.2,7.2l4.793-4.8a.727.727,0,0,0-1.033-1.018Z" transform="translate(0 0.723)" fill="#fff"/>
    </g>
  </g>
</svg>
