<svg xmlns="http://www.w3.org/2000/svg" viewBox="0 0 24 24">
  <g id="ic_clear" opacity="0.4">
    <g id="Icon_24px" data-name="Icon 24px">
      <path id="Shape" d="M14,1.41,12.59,0,7,5.59,1.41,0,0,1.41,5.59,7,0,12.59,1.41,14,7,8.41,12.59,14,14,12.59,8.41,7Z" transform="translate(5 5)"/>
      <path id="Shape-2" data-name="Shape" d="M0,0H24V24H0Z" fill="none"/>
    </g>
  </g>
</svg>
