<svg xmlns="http://www.w3.org/2000/svg" viewBox="0 0 19 19">
  <g id="Emojis_Icon" transform="translate(0.5 0.5)">
    <path id="Path" d="M0,0A5.088,5.088,0,0,0,4.389,2.635,4.759,4.759,0,0,0,8.632.02" transform="translate(4.644 11.252)" fill="none" stroke="#838ca3" stroke-linecap="round" stroke-miterlimit="10" stroke-width="1"/>
    <circle id="Path-2" data-name="Path" cx="0.909" cy="0.909" r="0.909" transform="translate(10.727 5.793)" fill="#838ca3" stroke="#838ca3" stroke-miterlimit="10" stroke-width="0.5"/>
    <circle id="Path-3" data-name="Path" cx="0.909" cy="0.909" r="0.909" transform="translate(5.273 5.793)" fill="#838ca3" stroke="#838ca3" stroke-miterlimit="10" stroke-width="0.5"/>
    <circle id="Oval_203" data-name="Oval 203" cx="9" cy="9" r="9" fill="none" stroke="#838ca3" stroke-miterlimit="10" stroke-width="1"/>
  </g>
</svg>
