<svg xmlns="http://www.w3.org/2000/svg" viewBox="0 0 21.487 11.151">
  <g id="if_view6_216550" transform="translate(0 -0.231)">
    <path id="Shape" d="M10.759,11.151h-.027C5.934,11.128,2.277,8.279.525,6.583A1.406,1.406,0,0,1,0,5.481,1.709,1.709,0,0,1,.772,4.23l.017-.014a22.09,22.09,0,0,1,4.1-2.708A13.7,13.7,0,0,1,10.73,0h.027A13.691,13.691,0,0,1,16.6,1.507a22.192,22.192,0,0,1,4.1,2.709l.017.014a1.709,1.709,0,0,1,.771,1.252,1.408,1.408,0,0,1-.523,1.1c-1.752,1.7-5.407,4.544-10.205,4.566h0Zm-.014-9.893a4.316,4.316,0,1,0,4.289,4.315A4.326,4.326,0,0,0,10.745,1.258Z" transform="translate(0 0.231)" fill="#dbdfe4"/>
    <path id="Shape-2" data-name="Shape" d="M1.666,0H1.64a1.677,1.677,0,0,0,0,3.354v0l.013,0,.013,0v0A1.677,1.677,0,0,0,1.666,0Z" transform="translate(9.092 4.127)" fill="#dbdfe4"/>
  </g>
</svg>
