<svg xmlns="http://www.w3.org/2000/svg" viewBox="0 0 1000 834">
	<defs>
		<clipPath clipPathUnits="userSpaceOnUse" id="cp1">
			<path d="M464.32,738.69h529.46v-529.93h-529.46z" />
		</clipPath>
	</defs>
	<style>
		tspan { white-space:pre }
		.shp0 { fill: #fffcf6 } 
		.shp1 { fill: none } 
	</style>
	<g id="Page 1">
		<path id="Fill 1" class="shp0" d="M645.25,816.89l178.63,-178.78c9.59,-9.6 14.82,-22.43 14.68,-36.16c-0.12,-13.77 -5.61,-26.77 -15.43,-36.61c-9.96,-9.95 -23.11,-15.44 -37.04,-15.44c-13.53,0 -26.19,5.22 -35.66,14.69l-178.65,178.79c-19.83,19.85 -19.48,52.48 0.77,72.74c9.94,9.96 23.11,15.45 37.04,15.45c13.53,0 26.19,-5.22 35.66,-14.68z" />
		<g id="Group 5">
			<path id="Clip 4" class="shp1" d="M464.32,738.69h529.46v-529.93h-529.46z" />
			<g id="Group 5" clip-path="url(#cp1)">
				<path id="Fill 3" class="shp0" d="M552.43,724l426.69,-427.04c19.83,-19.84 19.5,-52.49 -0.75,-72.75c-9.96,-9.97 -23.11,-15.45 -37.04,-15.45c-13.53,0 -26.21,5.21 -35.66,14.68l-426.69,427.04c-19.83,19.86 -19.5,52.49 0.75,72.74c9.96,9.98 23.11,15.46 37.05,15.46c13.51,0 26.17,-5.22 35.64,-14.69z" />
			</g>
		</g>
		<path id="Fill 6" class="shp0" d="M366.81,538.23l449.66,-450.02c9.59,-9.61 14.8,-22.44 14.68,-36.17c-0.12,-13.77 -5.61,-26.75 -15.44,-36.59c-9.94,-9.97 -23.11,-15.45 -37.04,-15.45c-13.53,0 -26.19,5.22 -35.66,14.69l-449.64,450.03c-9.61,9.59 -14.82,22.43 -14.7,36.15c0.14,13.77 5.62,26.77 15.44,36.6c9.96,9.96 23.11,15.45 37.05,15.45c13.51,0 26.17,-5.22 35.64,-14.68z" />
		<path id="Fill 8" class="shp0" d="M273.98,445.34l311.86,-312.11c9.59,-9.6 14.82,-22.43 14.68,-36.17c-0.12,-13.76 -5.59,-26.76 -15.43,-36.59c-9.96,-9.97 -23.11,-15.45 -37.04,-15.45c-13.55,0 -26.19,5.22 -35.66,14.69l-311.86,312.12c-19.83,19.84 -19.5,52.48 0.75,72.75c9.96,9.96 23.12,15.45 37.05,15.45c13.51,0 26.19,-5.22 35.64,-14.69z" />
		<path id="Fill 10" class="shp0" d="M459.62,631.12l513.98,-514.4c19.83,-19.84 19.48,-52.49 -0.77,-72.76c-9.94,-9.96 -23.11,-15.44 -37.04,-15.44c-13.53,0 -26.19,5.22 -35.68,14.69l-513.96,514.39c-9.58,9.59 -14.78,22.43 -14.68,36.14c0.12,13.77 5.62,26.77 15.44,36.61c9.96,9.95 23.11,15.45 37.05,15.45c13.51,0 26.19,-5.22 35.64,-14.68z" />
		<path id="Fill 12" class="shp0" d="M832.14,444.57c9.82,-9.84 15.31,-22.84 15.43,-36.59c0.12,-13.72 -5.08,-26.56 -14.68,-36.15l-178.63,-178.81c-9.47,-9.47 -22.13,-14.68 -35.66,-14.68c-13.93,0 -27.08,5.5 -37.04,15.45c-20.25,20.27 -20.58,52.91 -0.75,72.76l178.63,178.79c9.45,9.47 22.13,14.69 35.64,14.69c13.93,0 27.09,-5.48 37.05,-15.45z" />
		<path id="Fill 14" class="shp0" d="M739.32,537.47c9.84,-9.84 15.32,-22.83 15.44,-36.59c0.12,-13.72 -5.08,-26.57 -14.68,-36.16l-426.69,-427.05c-9.45,-9.46 -22.13,-14.68 -35.66,-14.68c-13.93,0 -27.08,5.49 -37.05,15.46c-9.82,9.83 -15.31,22.83 -15.41,36.59c-0.14,13.72 5.08,26.55 14.68,36.14l426.69,427.04c9.46,9.48 22.13,14.7 35.64,14.7c13.93,0 27.09,-5.48 37.04,-15.45z" />
		<path id="Fill 16" class="shp0" d="M553.7,723.23c9.84,-9.83 15.31,-22.82 15.44,-36.59c0.12,-13.72 -5.1,-26.57 -14.68,-36.15l-449.68,-450.02c-9.47,-9.47 -22.13,-14.69 -35.64,-14.69c-13.95,0 -27.09,5.48 -37.05,15.45c-9.82,9.83 -15.31,22.83 -15.43,36.59c-0.14,13.72 5.08,26.57 14.68,36.16l449.66,450.01c9.47,9.47 22.13,14.7 35.66,14.7c13.93,0 27.08,-5.48 37.04,-15.46z" />
		<path id="Fill 18" class="shp0" d="M460.89,816.12c9.82,-9.83 15.31,-22.83 15.43,-36.59c0.12,-13.72 -5.08,-26.56 -14.68,-36.15l-311.86,-312.11c-9.47,-9.47 -22.13,-14.69 -35.66,-14.69c-13.93,0 -27.09,5.48 -37.04,15.45c-20.25,20.27 -20.58,52.91 -0.77,72.75l311.88,312.11c9.45,9.47 22.11,14.69 35.64,14.69c13.93,0 27.09,-5.48 37.05,-15.45z" />
		<path id="Fill 20" class="shp0" d="M646.52,630.34c9.82,-9.83 15.31,-22.83 15.43,-36.59c0.12,-13.72 -5.1,-26.55 -14.68,-36.15l-513.98,-514.38c-9.47,-9.48 -22.13,-14.69 -35.66,-14.69c-13.91,0 -27.08,5.48 -37.04,15.43c-20.25,20.28 -20.58,52.93 -0.75,72.77l513.98,514.39c9.46,9.47 22.13,14.68 35.64,14.68c13.93,0 27.09,-5.48 37.05,-15.45z" />
	</g>
</svg>