<svg id="noun_doc_365895" xmlns="http://www.w3.org/2000/svg" viewBox="0 0 16.923 20">
  <path id="Caminho_2159" data-name="Caminho 2159" d="M19.154,16.231H3.769V-2.231H14.538V-3H3.385A.414.414,0,0,0,3-2.615V16.615A.414.414,0,0,0,3.385,17H19.538a.414.414,0,0,0,.385-.385V2.385h-.769Z" transform="translate(-3 3)" fill="#3880f4"/>
  <path id="Caminho_2160" data-name="Caminho 2160" d="M31.769,2.385V-3H31V3.154h6.154V2.385Z" transform="translate(-20.231 3)" fill="#3880f4"/>
  <path id="Caminho_2161" data-name="Caminho 2161" d="M37.277,2.115,32.162-3h-.846l-.115.115,6.077,6.077Z" transform="translate(-20.354 3)" fill="#3880f4"/>
  <rect id="Retângulo_1" data-name="Retângulo 1" width="9.231" height="0.769" transform="translate(3.846 8.462)" fill="#3880f4"/>
  <rect id="Retângulo_2" data-name="Retângulo 2" width="7.692" height="0.769" transform="translate(3.846 11.538)" fill="#3880f4"/>
  <rect id="Retângulo_3" data-name="Retângulo 3" width="9.231" height="0.769" transform="translate(3.846 14.615)" fill="#3880f4"/>
</svg>
