<svg id="ic_clear_copy_3" data-name="ic_clear copy 3" xmlns="http://www.w3.org/2000/svg" viewBox="0 0 25 25">
  <circle id="Oval_4" data-name="Oval 4" cx="12.5" cy="12.5" r="12.5" fill="#edeff1"/>
  <path id="Shape" d="M11.083,1.116,9.967,0,5.542,4.425,1.116,0,0,1.116,4.425,5.542,0,9.967l1.116,1.116L5.542,6.658l4.425,4.425,1.116-1.116L6.658,5.542Z" transform="translate(6.958 6.958)" fill="#838ca3"/>
</svg>
